Exploring Cohon Calibration
…
6.1.1 Table

We summarise the calibrated penalties and associated metrics across
targets and feature subset sizes.

cohon_target_results_multi %>%
  dplyr::select(
    scenario, n_features, target,
    feature_prop, n_features_requested, seed,
    cohon_penalty,
    calib_time_sec, solver_time_sec, total_time_sec,
    boundary_length_km, boundary_cost, pu_cost_total, total_cost
  )

## # A tibble: 40 × 14
##    scenario           n_features target feature_prop n_features_requested   seed
##    <chr>                   <int>  <dbl>        <dbl>                <dbl>  <dbl>
##  1 target_5_feat_6_o…          6   0.05         0.25                    6 200025
##  2 target_5_feat_12_…         12   0.05         0.5                    12 200050
##  3 target_5_feat_18_…         18   0.05         0.75                   18 200075
##  4 target_5_feat_24_…         24   0.05         1                      24 200100
##  5 target_10_feat_6_…          6   0.1          0.25                    6 200025
##  6 target_10_feat_12…         12   0.1          0.5                    12 200050
##  7 target_10_feat_18…         18   0.1          0.75                   18 200075
##  8 target_10_feat_24…         24   0.1          1                      24 200100
##  9 target_15_feat_6_…          6   0.15         0.25                    6 200025
## 10 target_15_feat_12…         12   0.15         0.5                    12 200050
## # ℹ 30 more rows
## # ℹ 8 more variables: cohon_penalty <dbl>, calib_time_sec <dbl>,
## #   solver_time_sec <dbl>, total_time_sec <dbl>, boundary_length_km <dbl>,
## #   boundary_cost <dbl>, pu_cost_total <dbl>, total_cost <dbl>
…
